-- Merging decision tree log ---
manifest
ADDED from /home/tanvi/Downloads/ActivityManager/app/src/main/AndroidManifest.xml:2:1-21:12
INJECTED from /home/tanvi/Downloads/ActivityManager/app/src/main/AndroidManifest.xml:2:1-21:12
INJECTED from /home/tanvi/Downloads/ActivityManager/app/src/main/AndroidManifest.xml:2:1-21:12
INJECTED from /home/tanvi/Downloads/ActivityManager/app/src/main/AndroidManifest.xml:2:1-21:12
MERGED from [com.android.support:appcompat-v7:26.1.0] /home/tanvi/.gradle/caches/transforms-1/files-1.1/appcompat-v7-26.1.0.aar/cc4eb33523b094a0e1197706a91233dd/AndroidManifest.xml:17:1-31:12
MERGED from [com.android.support.constraint:constraint-layout:1.0.2] /home/tanvi/.gradle/caches/transforms-1/files-1.1/constraint-layout-1.0.2.aar/0e16a1e908293d154c4ed4a2d6c30761/AndroidManifest.xml:2:1-11:12
MERGED from [com.android.support:animated-vector-drawable:26.1.0] /home/tanvi/.gradle/caches/transforms-1/files-1.1/animated-vector-drawable-26.1.0.aar/ba373e3a66451bb6c0f51fc6b5bcf857/AndroidManifest.xml:17:1-28:12
MERGED from [com.android.support:support-vector-drawable:26.1.0] /home/tanvi/.gradle/caches/transforms-1/files-1.1/support-vector-drawable-26.1.0.aar/96b255a62b303d62cb9162570a3a6436/AndroidManifest.xml:17:1-28:12
MERGED from [com.android.support:support-v4:26.1.0] /home/tanvi/.gradle/caches/transforms-1/files-1.1/support-v4-26.1.0.aar/93f21c8739091081a1f394ffe073b417/AndroidManifest.xml:17:1-31:12
MERGED from [com.android.support:support-media-compat:26.1.0] /home/tanvi/.gradle/caches/transforms-1/files-1.1/support-media-compat-26.1.0.aar/e22db66499329783ad4b13847500fb16/AndroidManifest.xml:17:1-31:12
MERGED from [com.android.support:support-fragment:26.1.0] /home/tanvi/.gradle/caches/transforms-1/files-1.1/support-fragment-26.1.0.aar/715593781175712ecd59a3ae0ddb1099/AndroidManifest.xml:17:1-31:12
MERGED from [com.android.support:support-core-utils:26.1.0] /home/tanvi/.gradle/caches/transforms-1/files-1.1/support-core-utils-26.1.0.aar/3d5311fe355dd9d74119666219bdcd00/AndroidManifest.xml:17:1-31:12
MERGED from [com.android.support:support-core-ui:26.1.0] /home/tanvi/.gradle/caches/transforms-1/files-1.1/support-core-ui-26.1.0.aar/3357297ab12b1a32091019f9d8b91539/AndroidManifest.xml:17:1-31:12
MERGED from [com.android.support:support-compat:26.1.0] /home/tanvi/.gradle/caches/transforms-1/files-1.1/support-compat-26.1.0.aar/23f79058e24fdf574b269758caadc663/AndroidManifest.xml:17:1-31:12
MERGED from [android.arch.lifecycle:runtime:1.0.0] /home/tanvi/.gradle/caches/transforms-1/files-1.1/runtime-1.0.0.aar/4a17ec4927f2ee086d20c0a8243ef76a/AndroidManifest.xml:17:1-30:12
INJECTED from /home/tanvi/Downloads/ActivityManager/app/src/main/AndroidManifest.xml:2:1-21:12
INJECTED from /home/tanvi/Downloads/ActivityManager/app/src/main/AndroidManifest.xml:2:1-21:12
INJECTED from /home/tanvi/Downloads/ActivityManager/app/src/main/AndroidManifest.xml:2:1-21:12
	package
		ADDED from /home/tanvi/Downloads/ActivityManager/app/src/main/AndroidManifest.xml:3:5-48
		INJECTED from /home/tanvi/Downloads/ActivityManager/app/src/main/AndroidManifest.xml
		INJECTED from /home/tanvi/Downloads/ActivityManager/app/src/main/AndroidManifest.xml
	android:versionName
		INJECTED from /home/tanvi/Downloads/ActivityManager/app/src/main/AndroidManifest.xml
		ADDED from /home/tanvi/Downloads/ActivityManager/app/src/main/AndroidManifest.xml:2:1-21:12
		INJECTED from /home/tanvi/Downloads/ActivityManager/app/src/main/AndroidManifest.xml
	android:versionCode
		INJECTED from /home/tanvi/Downloads/ActivityManager/app/src/main/AndroidManifest.xml
		ADDED from /home/tanvi/Downloads/ActivityManager/app/src/main/AndroidManifest.xml:2:1-21:12
		INJECTED from /home/tanvi/Downloads/ActivityManager/app/src/main/AndroidManifest.xml
	xmlns:android
		ADDED from /home/tanvi/Downloads/ActivityManager/app/src/main/AndroidManifest.xml:2:11-69
application
ADDED from /home/tanvi/Downloads/ActivityManager/app/src/main/AndroidManifest.xml:5:5-19:19
MERGED from [com.android.support:appcompat-v7:26.1.0] /home/tanvi/.gradle/caches/transforms-1/files-1.1/appcompat-v7-26.1.0.aar/cc4eb33523b094a0e1197706a91233dd/AndroidManifest.xml:25:5-29:19
MERGED from [com.android.support:appcompat-v7:26.1.0] /home/tanvi/.gradle/caches/transforms-1/files-1.1/appcompat-v7-26.1.0.aar/cc4eb33523b094a0e1197706a91233dd/AndroidManifest.xml:25:5-29:19
MERGED from [com.android.support.constraint:constraint-layout:1.0.2] /home/tanvi/.gradle/caches/transforms-1/files-1.1/constraint-layout-1.0.2.aar/0e16a1e908293d154c4ed4a2d6c30761/AndroidManifest.xml:9:5-20
MERGED from [com.android.support.constraint:constraint-layout:1.0.2] /home/tanvi/.gradle/caches/transforms-1/files-1.1/constraint-layout-1.0.2.aar/0e16a1e908293d154c4ed4a2d6c30761/AndroidManifest.xml:9:5-20
MERGED from [com.android.support:animated-vector-drawable:26.1.0] /home/tanvi/.gradle/caches/transforms-1/files-1.1/animated-vector-drawable-26.1.0.aar/ba373e3a66451bb6c0f51fc6b5bcf857/AndroidManifest.xml:22:5-26:19
MERGED from [com.android.support:animated-vector-drawable:26.1.0] /home/tanvi/.gradle/caches/transforms-1/files-1.1/animated-vector-drawable-26.1.0.aar/ba373e3a66451bb6c0f51fc6b5bcf857/AndroidManifest.xml:22:5-26:19
MERGED from [com.android.support:support-vector-drawable:26.1.0] /home/tanvi/.gradle/caches/transforms-1/files-1.1/support-vector-drawable-26.1.0.aar/96b255a62b303d62cb9162570a3a6436/AndroidManifest.xml:22:5-26:19
MERGED from [com.android.support:support-vector-drawable:26.1.0] /home/tanvi/.gradle/caches/transforms-1/files-1.1/support-vector-drawable-26.1.0.aar/96b255a62b303d62cb9162570a3a6436/AndroidManifest.xml:22:5-26:19
MERGED from [com.android.support:support-v4:26.1.0] /home/tanvi/.gradle/caches/transforms-1/files-1.1/support-v4-26.1.0.aar/93f21c8739091081a1f394ffe073b417/AndroidManifest.xml:25:5-29:19
MERGED from [com.android.support:support-v4:26.1.0] /home/tanvi/.gradle/caches/transforms-1/files-1.1/support-v4-26.1.0.aar/93f21c8739091081a1f394ffe073b417/AndroidManifest.xml:25:5-29:19
MERGED from [com.android.support:support-media-compat:26.1.0] /home/tanvi/.gradle/caches/transforms-1/files-1.1/support-media-compat-26.1.0.aar/e22db66499329783ad4b13847500fb16/AndroidManifest.xml:25:5-29:19
MERGED from [com.android.support:support-media-compat:26.1.0] /home/tanvi/.gradle/caches/transforms-1/files-1.1/support-media-compat-26.1.0.aar/e22db66499329783ad4b13847500fb16/AndroidManifest.xml:25:5-29:19
MERGED from [com.android.support:support-fragment:26.1.0] /home/tanvi/.gradle/caches/transforms-1/files-1.1/support-fragment-26.1.0.aar/715593781175712ecd59a3ae0ddb1099/AndroidManifest.xml:25:5-29:19
MERGED from [com.android.support:support-fragment:26.1.0] /home/tanvi/.gradle/caches/transforms-1/files-1.1/support-fragment-26.1.0.aar/715593781175712ecd59a3ae0ddb1099/AndroidManifest.xml:25:5-29:19
MERGED from [com.android.support:support-core-utils:26.1.0] /home/tanvi/.gradle/caches/transforms-1/files-1.1/support-core-utils-26.1.0.aar/3d5311fe355dd9d74119666219bdcd00/AndroidManifest.xml:25:5-29:19
MERGED from [com.android.support:support-core-utils:26.1.0] /home/tanvi/.gradle/caches/transforms-1/files-1.1/support-core-utils-26.1.0.aar/3d5311fe355dd9d74119666219bdcd00/AndroidManifest.xml:25:5-29:19
MERGED from [com.android.support:support-core-ui:26.1.0] /home/tanvi/.gradle/caches/transforms-1/files-1.1/support-core-ui-26.1.0.aar/3357297ab12b1a32091019f9d8b91539/AndroidManifest.xml:25:5-29:19
MERGED from [com.android.support:support-core-ui:26.1.0] /home/tanvi/.gradle/caches/transforms-1/files-1.1/support-core-ui-26.1.0.aar/3357297ab12b1a32091019f9d8b91539/AndroidManifest.xml:25:5-29:19
MERGED from [com.android.support:support-compat:26.1.0] /home/tanvi/.gradle/caches/transforms-1/files-1.1/support-compat-26.1.0.aar/23f79058e24fdf574b269758caadc663/AndroidManifest.xml:25:5-29:19
MERGED from [com.android.support:support-compat:26.1.0] /home/tanvi/.gradle/caches/transforms-1/files-1.1/support-compat-26.1.0.aar/23f79058e24fdf574b269758caadc663/AndroidManifest.xml:25:5-29:19
MERGED from [android.arch.lifecycle:runtime:1.0.0] /home/tanvi/.gradle/caches/transforms-1/files-1.1/runtime-1.0.0.aar/4a17ec4927f2ee086d20c0a8243ef76a/AndroidManifest.xml:24:5-28:19
MERGED from [android.arch.lifecycle:runtime:1.0.0] /home/tanvi/.gradle/caches/transforms-1/files-1.1/runtime-1.0.0.aar/4a17ec4927f2ee086d20c0a8243ef76a/AndroidManifest.xml:24:5-28:19
	android:supportsRtl
		ADDED from /home/tanvi/Downloads/ActivityManager/app/src/main/AndroidManifest.xml:10:9-35
	android:label
		ADDED from /home/tanvi/Downloads/ActivityManager/app/src/main/AndroidManifest.xml:8:9-41
	android:roundIcon
		ADDED from /home/tanvi/Downloads/ActivityManager/app/src/main/AndroidManifest.xml:9:9-54
	android:icon
		ADDED from /home/tanvi/Downloads/ActivityManager/app/src/main/AndroidManifest.xml:7:9-43
	android:allowBackup
		ADDED from /home/tanvi/Downloads/ActivityManager/app/src/main/AndroidManifest.xml:6:9-35
	android:theme
		ADDED from /home/tanvi/Downloads/ActivityManager/app/src/main/AndroidManifest.xml:11:9-40
activity#com.example.tanvi.activitymanager.MainActivity
ADDED from /home/tanvi/Downloads/ActivityManager/app/src/main/AndroidManifest.xml:12:9-18:20
	android:name
		ADDED from /home/tanvi/Downloads/ActivityManager/app/src/main/AndroidManifest.xml:12:19-47
intent-filter#android.intent.action.MAIN+android.intent.category.LAUNCHER
ADDED from /home/tanvi/Downloads/ActivityManager/app/src/main/AndroidManifest.xml:13:13-17:29
action#android.intent.action.MAIN
ADDED from /home/tanvi/Downloads/ActivityManager/app/src/main/AndroidManifest.xml:14:17-69
	android:name
		ADDED from /home/tanvi/Downloads/ActivityManager/app/src/main/AndroidManifest.xml:14:25-66
category#android.intent.category.LAUNCHER
ADDED from /home/tanvi/Downloads/ActivityManager/app/src/main/AndroidManifest.xml:16:17-77
	android:name
		ADDED from /home/tanvi/Downloads/ActivityManager/app/src/main/AndroidManifest.xml:16:27-74
uses-sdk
INJECTED from /home/tanvi/Downloads/ActivityManager/app/src/main/AndroidManifest.xml reason: use-sdk injection requested
INJECTED from /home/tanvi/Downloads/ActivityManager/app/src/main/AndroidManifest.xml
INJECTED from /home/tanvi/Downloads/ActivityManager/app/src/main/AndroidManifest.xml
MERGED from [com.android.support:appcompat-v7:26.1.0] /home/tanvi/.gradle/caches/transforms-1/files-1.1/appcompat-v7-26.1.0.aar/cc4eb33523b094a0e1197706a91233dd/AndroidManifest.xml:21:5-23:78
MERGED from [com.android.support:appcompat-v7:26.1.0] /home/tanvi/.gradle/caches/transforms-1/files-1.1/appcompat-v7-26.1.0.aar/cc4eb33523b094a0e1197706a91233dd/AndroidManifest.xml:21:5-23:78
MERGED from [com.android.support.constraint:constraint-layout:1.0.2] /home/tanvi/.gradle/caches/transforms-1/files-1.1/constraint-layout-1.0.2.aar/0e16a1e908293d154c4ed4a2d6c30761/AndroidManifest.xml:5:5-7:41
MERGED from [com.android.support.constraint:constraint-layout:1.0.2] /home/tanvi/.gradle/caches/transforms-1/files-1.1/constraint-layout-1.0.2.aar/0e16a1e908293d154c4ed4a2d6c30761/AndroidManifest.xml:5:5-7:41
MERGED from [com.android.support:animated-vector-drawable:26.1.0] /home/tanvi/.gradle/caches/transforms-1/files-1.1/animated-vector-drawable-26.1.0.aar/ba373e3a66451bb6c0f51fc6b5bcf857/AndroidManifest.xml:20:5-44
MERGED from [com.android.support:animated-vector-drawable:26.1.0] /home/tanvi/.gradle/caches/transforms-1/files-1.1/animated-vector-drawable-26.1.0.aar/ba373e3a66451bb6c0f51fc6b5bcf857/AndroidManifest.xml:20:5-44
MERGED from [com.android.support:support-vector-drawable:26.1.0] /home/tanvi/.gradle/caches/transforms-1/files-1.1/support-vector-drawable-26.1.0.aar/96b255a62b303d62cb9162570a3a6436/AndroidManifest.xml:20:5-44
MERGED from [com.android.support:support-vector-drawable:26.1.0] /home/tanvi/.gradle/caches/transforms-1/files-1.1/support-vector-drawable-26.1.0.aar/96b255a62b303d62cb9162570a3a6436/AndroidManifest.xml:20:5-44
MERGED from [com.android.support:support-v4:26.1.0] /home/tanvi/.gradle/caches/transforms-1/files-1.1/support-v4-26.1.0.aar/93f21c8739091081a1f394ffe073b417/AndroidManifest.xml:21:5-23:54
MERGED from [com.android.support:support-v4:26.1.0] /home/tanvi/.gradle/caches/transforms-1/files-1.1/support-v4-26.1.0.aar/93f21c8739091081a1f394ffe073b417/AndroidManifest.xml:21:5-23:54
MERGED from [com.android.support:support-media-compat:26.1.0] /home/tanvi/.gradle/caches/transforms-1/files-1.1/support-media-compat-26.1.0.aar/e22db66499329783ad4b13847500fb16/AndroidManifest.xml:21:5-23:63
MERGED from [com.android.support:support-media-compat:26.1.0] /home/tanvi/.gradle/caches/transforms-1/files-1.1/support-media-compat-26.1.0.aar/e22db66499329783ad4b13847500fb16/AndroidManifest.xml:21:5-23:63
MERGED from [com.android.support:support-fragment:26.1.0] /home/tanvi/.gradle/caches/transforms-1/files-1.1/support-fragment-26.1.0.aar/715593781175712ecd59a3ae0ddb1099/AndroidManifest.xml:21:5-23:60
MERGED from [com.android.support:support-fragment:26.1.0] /home/tanvi/.gradle/caches/transforms-1/files-1.1/support-fragment-26.1.0.aar/715593781175712ecd59a3ae0ddb1099/AndroidManifest.xml:21:5-23:60
MERGED from [com.android.support:support-core-utils:26.1.0] /home/tanvi/.gradle/caches/transforms-1/files-1.1/support-core-utils-26.1.0.aar/3d5311fe355dd9d74119666219bdcd00/AndroidManifest.xml:21:5-23:61
MERGED from [com.android.support:support-core-utils:26.1.0] /home/tanvi/.gradle/caches/transforms-1/files-1.1/support-core-utils-26.1.0.aar/3d5311fe355dd9d74119666219bdcd00/AndroidManifest.xml:21:5-23:61
MERGED from [com.android.support:support-core-ui:26.1.0] /home/tanvi/.gradle/caches/transforms-1/files-1.1/support-core-ui-26.1.0.aar/3357297ab12b1a32091019f9d8b91539/AndroidManifest.xml:21:5-23:58
MERGED from [com.android.support:support-core-ui:26.1.0] /home/tanvi/.gradle/caches/transforms-1/files-1.1/support-core-ui-26.1.0.aar/3357297ab12b1a32091019f9d8b91539/AndroidManifest.xml:21:5-23:58
MERGED from [com.android.support:support-compat:26.1.0] /home/tanvi/.gradle/caches/transforms-1/files-1.1/support-compat-26.1.0.aar/23f79058e24fdf574b269758caadc663/AndroidManifest.xml:21:5-23:58
MERGED from [com.android.support:support-compat:26.1.0] /home/tanvi/.gradle/caches/transforms-1/files-1.1/support-compat-26.1.0.aar/23f79058e24fdf574b269758caadc663/AndroidManifest.xml:21:5-23:58
MERGED from [android.arch.lifecycle:runtime:1.0.0] /home/tanvi/.gradle/caches/transforms-1/files-1.1/runtime-1.0.0.aar/4a17ec4927f2ee086d20c0a8243ef76a/AndroidManifest.xml:20:5-22:41
MERGED from [android.arch.lifecycle:runtime:1.0.0] /home/tanvi/.gradle/caches/transforms-1/files-1.1/runtime-1.0.0.aar/4a17ec4927f2ee086d20c0a8243ef76a/AndroidManifest.xml:20:5-22:41
INJECTED from /home/tanvi/Downloads/ActivityManager/app/src/main/AndroidManifest.xml
INJECTED from /home/tanvi/Downloads/ActivityManager/app/src/main/AndroidManifest.xml
	tools:overrideLibrary
		ADDED from [com.android.support:appcompat-v7:26.1.0] /home/tanvi/.gradle/caches/transforms-1/files-1.1/appcompat-v7-26.1.0.aar/cc4eb33523b094a0e1197706a91233dd/AndroidManifest.xml:23:9-75
	android:targetSdkVersion
		INJECTED from /home/tanvi/Downloads/ActivityManager/app/src/main/AndroidManifest.xml
		ADDED from /home/tanvi/Downloads/ActivityManager/app/src/main/AndroidManifest.xml
		INJECTED from /home/tanvi/Downloads/ActivityManager/app/src/main/AndroidManifest.xml
	android:minSdkVersion
		INJECTED from /home/tanvi/Downloads/ActivityManager/app/src/main/AndroidManifest.xml
		ADDED from /home/tanvi/Downloads/ActivityManager/app/src/main/AndroidManifest.xml
		INJECTED from /home/tanvi/Downloads/ActivityManager/app/src/main/AndroidManifest.xml
meta-data#android.support.VERSION
ADDED from [com.android.support:appcompat-v7:26.1.0] /home/tanvi/.gradle/caches/transforms-1/files-1.1/appcompat-v7-26.1.0.aar/cc4eb33523b094a0e1197706a91233dd/AndroidManifest.xml:26:9-28:38
MERGED from [com.android.support:animated-vector-drawable:26.1.0] /home/tanvi/.gradle/caches/transforms-1/files-1.1/animated-vector-drawable-26.1.0.aar/ba373e3a66451bb6c0f51fc6b5bcf857/AndroidManifest.xml:23:9-25:38
MERGED from [com.android.support:animated-vector-drawable:26.1.0] /home/tanvi/.gradle/caches/transforms-1/files-1.1/animated-vector-drawable-26.1.0.aar/ba373e3a66451bb6c0f51fc6b5bcf857/AndroidManifest.xml:23:9-25:38
MERGED from [com.android.support:support-vector-drawable:26.1.0] /home/tanvi/.gradle/caches/transforms-1/files-1.1/support-vector-drawable-26.1.0.aar/96b255a62b303d62cb9162570a3a6436/AndroidManifest.xml:23:9-25:38
MERGED from [com.android.support:support-vector-drawable:26.1.0] /home/tanvi/.gradle/caches/transforms-1/files-1.1/support-vector-drawable-26.1.0.aar/96b255a62b303d62cb9162570a3a6436/AndroidManifest.xml:23:9-25:38
MERGED from [com.android.support:support-v4:26.1.0] /home/tanvi/.gradle/caches/transforms-1/files-1.1/support-v4-26.1.0.aar/93f21c8739091081a1f394ffe073b417/AndroidManifest.xml:26:9-28:38
MERGED from [com.android.support:support-v4:26.1.0] /home/tanvi/.gradle/caches/transforms-1/files-1.1/support-v4-26.1.0.aar/93f21c8739091081a1f394ffe073b417/AndroidManifest.xml:26:9-28:38
MERGED from [com.android.support:support-media-compat:26.1.0] /home/tanvi/.gradle/caches/transforms-1/files-1.1/support-media-compat-26.1.0.aar/e22db66499329783ad4b13847500fb16/AndroidManifest.xml:26:9-28:38
MERGED from [com.android.support:support-media-compat:26.1.0] /home/tanvi/.gradle/caches/transforms-1/files-1.1/support-media-compat-26.1.0.aar/e22db66499329783ad4b13847500fb16/AndroidManifest.xml:26:9-28:38
MERGED from [com.android.support:support-fragment:26.1.0] /home/tanvi/.gradle/caches/transforms-1/files-1.1/support-fragment-26.1.0.aar/715593781175712ecd59a3ae0ddb1099/AndroidManifest.xml:26:9-28:38
MERGED from [com.android.support:support-fragment:26.1.0] /home/tanvi/.gradle/caches/transforms-1/files-1.1/support-fragment-26.1.0.aar/715593781175712ecd59a3ae0ddb1099/AndroidManifest.xml:26:9-28:38
MERGED from [com.android.support:support-core-utils:26.1.0] /home/tanvi/.gradle/caches/transforms-1/files-1.1/support-core-utils-26.1.0.aar/3d5311fe355dd9d74119666219bdcd00/AndroidManifest.xml:26:9-28:38
MERGED from [com.android.support:support-core-utils:26.1.0] /home/tanvi/.gradle/caches/transforms-1/files-1.1/support-core-utils-26.1.0.aar/3d5311fe355dd9d74119666219bdcd00/AndroidManifest.xml:26:9-28:38
MERGED from [com.android.support:support-core-ui:26.1.0] /home/tanvi/.gradle/caches/transforms-1/files-1.1/support-core-ui-26.1.0.aar/3357297ab12b1a32091019f9d8b91539/AndroidManifest.xml:26:9-28:38
MERGED from [com.android.support:support-core-ui:26.1.0] /home/tanvi/.gradle/caches/transforms-1/files-1.1/support-core-ui-26.1.0.aar/3357297ab12b1a32091019f9d8b91539/AndroidManifest.xml:26:9-28:38
MERGED from [com.android.support:support-compat:26.1.0] /home/tanvi/.gradle/caches/transforms-1/files-1.1/support-compat-26.1.0.aar/23f79058e24fdf574b269758caadc663/AndroidManifest.xml:26:9-28:38
MERGED from [com.android.support:support-compat:26.1.0] /home/tanvi/.gradle/caches/transforms-1/files-1.1/support-compat-26.1.0.aar/23f79058e24fdf574b269758caadc663/AndroidManifest.xml:26:9-28:38
	android:value
		ADDED from [com.android.support:appcompat-v7:26.1.0] /home/tanvi/.gradle/caches/transforms-1/files-1.1/appcompat-v7-26.1.0.aar/cc4eb33523b094a0e1197706a91233dd/AndroidManifest.xml:28:13-35
	android:name
		ADDED from [com.android.support:appcompat-v7:26.1.0] /home/tanvi/.gradle/caches/transforms-1/files-1.1/appcompat-v7-26.1.0.aar/cc4eb33523b094a0e1197706a91233dd/AndroidManifest.xml:27:13-51
meta-data#android.arch.lifecycle.VERSION
ADDED from [android.arch.lifecycle:runtime:1.0.0] /home/tanvi/.gradle/caches/transforms-1/files-1.1/runtime-1.0.0.aar/4a17ec4927f2ee086d20c0a8243ef76a/AndroidManifest.xml:25:9-27:47
	android:value
		ADDED from [android.arch.lifecycle:runtime:1.0.0] /home/tanvi/.gradle/caches/transforms-1/files-1.1/runtime-1.0.0.aar/4a17ec4927f2ee086d20c0a8243ef76a/AndroidManifest.xml:27:13-44
	android:name
		ADDED from [android.arch.lifecycle:runtime:1.0.0] /home/tanvi/.gradle/caches/transforms-1/files-1.1/runtime-1.0.0.aar/4a17ec4927f2ee086d20c0a8243ef76a/AndroidManifest.xml:26:13-58
